{
	"map": {
		"Ungovernable Steppe": {
			"mining": {
				"site": [
					{
						"type": "Obsidian occurrence",
						"url": "https://www.lordswm.com/object-info.php?id=370"
					},
					{
						"type": "Obsidian occurrence",
						"url": "https://www.lordswm.com/object-info.php?id=364"
					},
					{
						"type": "Obsidian occurrence",
						"url": "https://www.lordswm.com/object-info.php?id=365"
					},
					{
						"type": "Obsidian occurrence",
						"url": "https://www.lordswm.com/object-info.php?id=363"
					}
				]
			},
			"machining": "",
			"production": {
				"site": [
					{
						"type": "Obsidian shield factory",
						"url": "https://www.lordswm.com/object-info.php?id=380"
					},
					{
						"type": "Flame plate plant",
						"url": "https://www.lordswm.com/object-info.php?id=376"
					},
					{
						"type": "Obsidian boots plant",
						"url": "https://www.lordswm.com/object-info.php?id=378"
					},
					{
						"type": "Jewellery of ambition",
						"url": "https://www.lordswm.com/object-info.php?id=369"
					},
					{
						"type": "Nightwatch works",
						"url": "https://www.lordswm.com/object-info.php?id=377"
					},
					{
						"type": "Dragonlords Legacy jewellery",
						"url": "https://www.lordswm.com/object-info.php?id=375"
					},
					{
						"type": "Obsidian helmet plant",
						"url": "https://www.lordswm.com/object-info.php?id=379"
					},
					{
						"type": "Jewellery of wardance",
						"url": "https://www.lordswm.com/object-info.php?id=374"
					},
					{
						"type": "Blacksmith of rebirth",
						"url": "https://www.lordswm.com/object-info.php?id=373"
					},
					{
						"type": "Maskrobe manufactory",
						"url": "https://www.lordswm.com/object-info.php?id=366"
					},
					{
						"type": "Dragonscale works",
						"url": "https://www.lordswm.com/object-info.php?id=371"
					},
					{
						"type": "Soldier boots works",
						"url": "https://www.lordswm.com/object-info.php?id=372"
					}
				]
			}
		},
		"Eagle Nest": {
			"mining": {
				"site": [
					{
						"type": "Sulphur dune",
						"url": "https://www.lordswm.com/object-info.php?id=94"
					},
					{
						"type": "Lab",
						"url": "https://www.lordswm.com/object-info.php?id=265"
					},
					{
						"type": "Sawmill",
						"url": "https://www.lordswm.com/object-info.php?id=227"
					},
					{
						"type": "Lab",
						"url": "https://www.lordswm.com/object-info.php?id=328"
					},
					{
						"type": "Lab",
						"url": "https://www.lordswm.com/object-info.php?id=244"
					},
					{
						"type": "Sawmill",
						"url": "https://www.lordswm.com/object-info.php?id=286"
					},
					{
						"type": "Ore pit",
						"url": "https://www.lordswm.com/object-info.php?id=307"
					}
				]
			},
			"machining": {
				"site": [
					{
						"type": "Foundry",
						"url": "https://www.lordswm.com/object-info.php?id=349"
					},
					{
						"type": "Foundry",
						"url": "https://www.lordswm.com/object-info.php?id=139"
					}
				]
			},
			"production": {
				"site": [
					{
						"type": "Steel cuirass blacksmith",
						"url": "https://www.lordswm.com/object-info.php?id=97"
					},
					{
						"type": "Defender shield blacksmith",
						"url": "https://www.lordswm.com/object-info.php?id=120"
					},
					{
						"type": "Blacksmith of might",
						"url": "https://www.lordswm.com/object-info.php?id=98"
					},
					{
						"type": "Steel boots factory",
						"url": "https://www.lordswm.com/object-info.php?id=101"
					},
					{
						"type": "Workshop of bravery",
						"url": "https://www.lordswm.com/object-info.php?id=119"
					},
					{
						"type": "Amulet of zeal",
						"url": "https://www.lordswm.com/object-info.php?id=95"
					},
					{
						"type": "Mithril mail factory",
						"url": "https://www.lordswm.com/object-info.php?id=140"
					}
				]
			}
		},
		"Peaceful Camp": {
			"mining": {
				"site": [
					{
						"type": "Sulphur dune",
						"url": "https://www.lordswm.com/object-info.php?id=49"
					},
					{
						"type": "Ore pit",
						"url": "https://www.lordswm.com/object-info.php?id=262"
					},
					{
						"type": "Ore pit",
						"url": "https://www.lordswm.com/object-info.php?id=50"
					},
					{
						"type": "Sawmill",
						"url": "https://www.lordswm.com/object-info.php?id=304"
					},
					{
						"type": "Ore pit",
						"url": "https://www.lordswm.com/object-info.php?id=346"
					},
					{
						"type": "Sawmill",
						"url": "https://www.lordswm.com/object-info.php?id=73"
					},
					{
						"type": "Sawmill",
						"url": "https://www.lordswm.com/object-info.php?id=283"
					}
				]
			},
			"machining": {
				"site": [
					{
						"type": "Foundry",
						"url": "https://www.lordswm.com/object-info.php?id=141"
					},
					{
						"type": "Steel works",
						"url": "https://www.lordswm.com/object-info.php?id=51"
					}
				]
			},
			"production": {
				"site": [
					{
						"type": "Blacksmith of equilibrium",
						"url": "https://www.lordswm.com/object-info.php?id=52"
					},
					{
						"type": "Cuirass of dawn",
						"url": "https://www.lordswm.com/object-info.php?id=53"
					},
					{
						"type": "Mithril ring",
						"url": "https://www.lordswm.com/object-info.php?id=54"
					},
					{
						"type": "Chain helmet factory",
						"url": "https://www.lordswm.com/object-info.php?id=55"
					},
					{
						"type": "Forge of glory",
						"url": "https://www.lordswm.com/object-info.php?id=79"
					},
					{
						"type": "Blacksmith of stiffness",
						"url": "https://www.lordswm.com/object-info.php?id=82"
					},
					{
						"type": "Dragonwing works",
						"url": "https://www.lordswm.com/object-info.php?id=325"
					}
				]
			}
		},
		"Crystal Garden": {
			"mining": "",
			"machining": {
				"site": {
					"type": "Smeltery",
					"url": "https://www.lordswm.com/object-info.php?id=367"
				}
			},
			"production": {
				"site": [
					{
						"type": "Flame boots plant",
						"url": "https://www.lordswm.com/object-info.php?id=389"
					},
					{
						"type": "Flame helmet plant",
						"url": "https://www.lordswm.com/object-info.php?id=383"
					},
					{
						"type": "Nightwatch works",
						"url": "https://www.lordswm.com/object-info.php?id=391"
					},
					{
						"type": "Dragonlords Legacy jewellery",
						"url": "https://www.lordswm.com/object-info.php?id=384"
					},
					{
						"type": "Manufactory of wrath",
						"url": "https://www.lordswm.com/object-info.php?id=381"
					},
					{
						"type": "Cuirass of dawn",
						"url": "https://www.lordswm.com/object-info.php?id=394"
					},
					{
						"type": "Ring of hope",
						"url": "https://www.lordswm.com/object-info.php?id=368"
					},
					{
						"type": "Dragonwing works",
						"url": "https://www.lordswm.com/object-info.php?id=388"
					},
					{
						"type": "Jewellery of torment",
						"url": "https://www.lordswm.com/object-info.php?id=385"
					},
					{
						"type": "Jewellery of torment",
						"url": "https://www.lordswm.com/object-info.php?id=386"
					},
					{
						"type": "Obsidian shield factory",
						"url": "https://www.lordswm.com/object-info.php?id=387"
					},
					{
						"type": "Blacksmith of rebirth",
						"url": "https://www.lordswm.com/object-info.php?id=392"
					},
					{
						"type": "Obsidian helmet plant",
						"url": "https://www.lordswm.com/object-info.php?id=393"
					},
					{
						"type": "Ruby gladius blacksmith",
						"url": "https://www.lordswm.com/object-info.php?id=382"
					},
					{
						"type": "Ruby gladius blacksmith",
						"url": "https://www.lordswm.com/object-info.php?id=390"
					}
				]
			}
		},
		"Fairy Trees": {
			"mining": {
				"site": [
					{
						"type": "Lab",
						"url": "https://www.lordswm.com/object-info.php?id=251"
					},
					{
						"type": "Gem mine",
						"url": "https://www.lordswm.com/object-info.php?id=272"
					},
					{
						"type": "Ore pit",
						"url": "https://www.lordswm.com/object-info.php?id=335"
					},
					{
						"type": "Ore pit",
						"url": "https://www.lordswm.com/object-info.php?id=221"
					},
					{
						"type": "Sawmill",
						"url": "https://www.lordswm.com/object-info.php?id=126"
					},
					{
						"type": "Sawmill",
						"url": "https://www.lordswm.com/object-info.php?id=233"
					}
				]
			},
			"machining": {
				"site": {
					"type": "Foundry",
					"url": "https://www.lordswm.com/object-info.php?id=134"
				}
			},
			"production": {
				"site": [
					{
						"type": "Manufactory of might",
						"url": "https://www.lordswm.com/object-info.php?id=150"
					},
					{
						"type": "Platemail blacksmith",
						"url": "https://www.lordswm.com/object-info.php?id=153"
					},
					{
						"type": "Warrior pendant works",
						"url": "https://www.lordswm.com/object-info.php?id=151"
					},
					{
						"type": "Blacksmith of courage",
						"url": "https://www.lordswm.com/object-info.php?id=127"
					},
					{
						"type": "Dragongrip jewellery",
						"url": "https://www.lordswm.com/object-info.php?id=212"
					},
					{
						"type": "Soldier boots works",
						"url": "https://www.lordswm.com/object-info.php?id=293"
					},
					{
						"type": "Breastplate of grace manufactory",
						"url": "https://www.lordswm.com/object-info.php?id=314"
					},
					{
						"type": "Amulet of luck factory",
						"url": "https://www.lordswm.com/object-info.php?id=356"
					},
					{
						"type": "Mithril ring",
						"url": "https://www.lordswm.com/object-info.php?id=152"
					}
				]
			}
		},
		"Mithril Coast": {
			"mining": {
				"site": [
					{
						"type": "Farm",
						"url": "https://www.lordswm.com/object-info.php?id=130"
					},
					{
						"type": "Gem mine",
						"url": "https://www.lordswm.com/object-info.php?id=253"
					},
					{
						"type": "Gem mine",
						"url": "https://www.lordswm.com/object-info.php?id=129"
					},
					{
						"type": "Sawmill",
						"url": "https://www.lordswm.com/object-info.php?id=358"
					},
					{
						"type": "Ore pit",
						"url": "https://www.lordswm.com/object-info.php?id=235"
					},
					{
						"type": "Ore pit",
						"url": "https://www.lordswm.com/object-info.php?id=128"
					}
				]
			},
			"machining": {
				"site": [
					{
						"type": "Nickel works",
						"url": "https://www.lordswm.com/object-info.php?id=137"
					},
					{
						"type": "Foundry",
						"url": "https://www.lordswm.com/object-info.php?id=138"
					}
				]
			},
			"production": {
				"site": [
					{
						"type": "Ring of fiery gaze",
						"url": "https://www.lordswm.com/object-info.php?id=154"
					},
					{
						"type": "Ring of fiery gaze",
						"url": "https://www.lordswm.com/object-info.php?id=157"
					},
					{
						"type": "Mithril ring",
						"url": "https://www.lordswm.com/object-info.php?id=156"
					},
					{
						"type": "Obsidian sword blacksmith",
						"url": "https://www.lordswm.com/object-info.php?id=337"
					},
					{
						"type": "Blacksmith of courage",
						"url": "https://www.lordswm.com/object-info.php?id=295"
					},
					{
						"type": "Tower shield factory",
						"url": "https://www.lordswm.com/object-info.php?id=155"
					},
					{
						"type": "Blacksmith of harmony",
						"url": "https://www.lordswm.com/object-info.php?id=316"
					},
					{
						"type": "Helmet of dawn",
						"url": "https://www.lordswm.com/object-info.php?id=274"
					}
				]
			}
		},
		"Harbour City": {
			"region": {
				"mining": {
					"site": [
						{
							"type": "Crystal cavern",
							"url": "https://www.lordswm.com/object-info.php?id=133"
						},
						{
							"type": "Gem mine",
							"url": "https://www.lordswm.com/object-info.php?id=131"
						},
						{
							"type": "Crystal cavern",
							"url": "https://www.lordswm.com/object-info.php?id=273"
						},
						{
							"type": "Sawmill",
							"url": "https://www.lordswm.com/object-info.php?id=252"
						}
					]
				},
				"machining": {
					"site": {
						"type": "Smeltery",
						"url": "https://www.lordswm.com/object-info.php?id=315"
					}
				},
				"production": {
					"site": [
						{
							"type": "Twilight piercer",
							"url": "https://www.lordswm.com/object-info.php?id=160"
						},
						{
							"type": "Composite bow works",
							"url": "https://www.lordswm.com/object-info.php?id=158"
						},
						{
							"type": "Mithril coif factory",
							"url": "https://www.lordswm.com/object-info.php?id=159"
						},
						{
							"type": "Mithril boots factory",
							"url": "https://www.lordswm.com/object-info.php?id=161"
						},
						{
							"type": "Mithril longsword blacksmith",
							"url": "https://www.lordswm.com/object-info.php?id=162"
						},
						{
							"type": "Mithril armor factory",
							"url": "https://www.lordswm.com/object-info.php?id=336"
						},
						{
							"type": "Manufactory of thorns",
							"url": "https://www.lordswm.com/object-info.php?id=132"
						},
						{
							"type": "Steel buckler",
							"url": "https://www.lordswm.com/object-info.php?id=222"
						},
						{
							"type": "Blacksmith of stiffness",
							"url": "https://www.lordswm.com/object-info.php?id=234"
						},
						{
							"type": "Jewellery of ambition",
							"url": "https://www.lordswm.com/object-info.php?id=294"
						},
						{
							"type": "Mithril mail factory",
							"url": "https://www.lordswm.com/object-info.php?id=357"
						}
					]
				}
			}
		},
		"Magma Mines": {
			"region": {
				"mining": {
					"site": [
						{
							"type": "Lab",
							"url": "https://www.lordswm.com/object-info.php?id=249"
						},
						{
							"type": "Sulphur dune",
							"url": "https://www.lordswm.com/object-info.php?id=122"
						},
						{
							"type": "Ore pit",
							"url": "https://www.lordswm.com/object-info.php?id=270"
						},
						{
							"type": "Sawmill",
							"url": "https://www.lordswm.com/object-info.php?id=312"
						},
						{
							"type": "Mithril delf",
							"url": "https://www.lordswm.com/object-info.php?id=291"
						},
						{
							"type": "Mithril delf",
							"url": "https://www.lordswm.com/object-info.php?id=333"
						},
						{
							"type": "Mithril delf",
							"url": "https://www.lordswm.com/object-info.php?id=121"
						},
						{
							"type": "Mithril delf",
							"url": "https://www.lordswm.com/object-info.php?id=216"
						},
						{
							"type": "Mithril delf",
							"url": "https://www.lordswm.com/object-info.php?id=164"
						}
					]
				},
				"machining": {
					"site": {
						"type": "Magic factory",
						"url": "https://www.lordswm.com/object-info.php?id=135"
					}
				},
				"production": {
					"site": [
						{
							"type": "Dragongrin charm",
							"url": "https://www.lordswm.com/object-info.php?id=145"
						},
						{
							"type": "Longbow workshop",
							"url": "https://www.lordswm.com/object-info.php?id=143"
						},
						{
							"type": "Amulet of luck factory",
							"url": "https://www.lordswm.com/object-info.php?id=354"
						},
						{
							"type": "Leather jackboots",
							"url": "https://www.lordswm.com/object-info.php?id=232"
						},
						{
							"type": "Ring of fiery gaze",
							"url": "https://www.lordswm.com/object-info.php?id=144"
						},
						{
							"type": "Workshop of despair",
							"url": "https://www.lordswm.com/object-info.php?id=142"
						}
					]
				}
			}
		},
		"Bear Mountain": {
			"region": {
				"mining": {
					"site": [
						{
							"type": "Obsidian occurrence",
							"url": "https://www.lordswm.com/object-info.php?id=214"
						},
						{
							"type": "Mithril delf",
							"url": "https://www.lordswm.com/object-info.php?id=313"
						},
						{
							"type": "Crystal cavern",
							"url": "https://www.lordswm.com/object-info.php?id=334"
						},
						{
							"type": "Gem mine",
							"url": "https://www.lordswm.com/object-info.php?id=125"
						},
						{
							"type": "Crystal cavern",
							"url": "https://www.lordswm.com/object-info.php?id=124"
						}
					]
				},
				"machining": {
					"site": {
						"type": "Steel works",
						"url": "https://www.lordswm.com/object-info.php?id=136"
					}
				},
				"production": {
					"site": [
						{
							"type": "Dragonwing works",
							"url": "https://www.lordswm.com/object-info.php?id=271"
						},
						{
							"type": "Soldier boots works",
							"url": "https://www.lordswm.com/object-info.php?id=292"
						},
						{
							"type": "Obsidian sword blacksmith",
							"url": "https://www.lordswm.com/object-info.php?id=215"
						},
						{
							"type": "Helmet of grace manufactory",
							"url": "https://www.lordswm.com/object-info.php?id=123"
						},
						{
							"type": "Horseshoe forge",
							"url": "https://www.lordswm.com/object-info.php?id=355"
						},
						{
							"type": "Mithril boots plant",
							"url": "https://www.lordswm.com/object-info.php?id=148"
						},
						{
							"type": "Helmet of dawn",
							"url": "https://www.lordswm.com/object-info.php?id=250"
						},
						{
							"type": "Mithril cuirass plant",
							"url": "https://www.lordswm.com/object-info.php?id=146"
						},
						{
							"type": "Mithril coif plant",
							"url": "https://www.lordswm.com/object-info.php?id=149"
						},
						{
							"type": "Mithril ring",
							"url": "https://www.lordswm.com/object-info.php?id=147"
						}
					]
				}
			}
		},
		"Rogues' Wood": {
			"mining": {
				"site": [
					{
						"type": "Gem mine",
						"url": "https://www.lordswm.com/object-info.php?id=344"
					},
					{
						"type": "Ore pit",
						"url": "https://www.lordswm.com/object-info.php?id=20"
					},
					{
						"type": "Sulphur dune",
						"url": "https://www.lordswm.com/object-info.php?id=19"
					},
					{
						"type": "Crystal cavern",
						"url": "https://www.lordswm.com/object-info.php?id=260"
					},
					{
						"type": "Crystal cavern",
						"url": "https://www.lordswm.com/object-info.php?id=281"
					},
					{
						"type": "Ore pit",
						"url": "https://www.lordswm.com/object-info.php?id=302"
					}
				]
			},
			"machining": {
				"site": [
					{
						"type": "Nickel works",
						"url": "https://www.lordswm.com/object-info.php?id=21"
					},
					{
						"type": "Steel works",
						"url": "https://www.lordswm.com/object-info.php?id=323"
					},
					{
						"type": "Magic factory",
						"url": "https://www.lordswm.com/object-info.php?id=22"
					}
				]
			},
			"production": {
				"site": [
					{
						"type": "Chain helmet factory",
						"url": "https://www.lordswm.com/object-info.php?id=90"
					},
					{
						"type": "Steel blade blacksmith",
						"url": "https://www.lordswm.com/object-info.php?id=30"
					},
					{
						"type": "Blacksmith of reprisal",
						"url": "https://www.lordswm.com/object-info.php?id=78"
					},
					{
						"type": "Hauberk works",
						"url": "https://www.lordswm.com/object-info.php?id=37"
					},
					{
						"type": "Dragonwing works",
						"url": "https://www.lordswm.com/object-info.php?id=18"
					},
					{
						"type": "Jewellery of ambition",
						"url": "https://www.lordswm.com/object-info.php?id=225"
					},
					{
						"type": "Obsidian sword blacksmith",
						"url": "https://www.lordswm.com/object-info.php?id=240"
					}
				]
			}
		},
		"Tiger Lake": {
			"mining": {
				"site": [
					{
						"type": "Ore pit",
						"url": "https://www.lordswm.com/object-info.php?id=239"
					},
					{
						"type": "Lab",
						"url": "https://www.lordswm.com/object-info.php?id=301"
					},
					{
						"type": "Gem mine",
						"url": "https://www.lordswm.com/object-info.php?id=15"
					},
					{
						"type": "Crystal cavern",
						"url": "https://www.lordswm.com/object-info.php?id=16"
					},
					{
						"type": "Sawmill",
						"url": "https://www.lordswm.com/object-info.php?id=13"
					},
					{
						"type": "Sawmill",
						"url": "https://www.lordswm.com/object-info.php?id=259"
					}
				]
			},
			"machining": {
				"site": [
					{
						"type": "Nickel works",
						"url": "https://www.lordswm.com/object-info.php?id=343"
					},
					{
						"type": "Nickel works",
						"url": "https://www.lordswm.com/object-info.php?id=280"
					}
				]
			},
			"production": {
				"site": [
					{
						"type": "Workshop of fortune",
						"url": "https://www.lordswm.com/object-info.php?id=322"
					},
					{
						"type": "Leather armour plant",
						"url": "https://www.lordswm.com/object-info.php?id=14"
					},
					{
						"type": "Defender shield blacksmith",
						"url": "https://www.lordswm.com/object-info.php?id=31"
					},
					{
						"type": "Light axe works",
						"url": "https://www.lordswm.com/object-info.php?id=27"
					},
					{
						"type": "Blacksmith of retribution",
						"url": "https://www.lordswm.com/object-info.php?id=39"
					},
					{
						"type": "Manufactory of wrath",
						"url": "https://www.lordswm.com/object-info.php?id=84"
					},
					{
						"type": "Breastplate of grace manufactory",
						"url": "https://www.lordswm.com/object-info.php?id=224"
					},
					{
						"type": "Jewellery of doubts",
						"url": "https://www.lordswm.com/object-info.php?id=35"
					}
				]
			}
		},
		"Shining Spring": {
			"mining": {
				"site": [
					{
						"type": "Sulphur dune",
						"url": "https://www.lordswm.com/object-info.php?id=331"
					},
					{
						"type": "Gem mine",
						"url": "https://www.lordswm.com/object-info.php?id=289"
					},
					{
						"type": "Lab",
						"url": "https://www.lordswm.com/object-info.php?id=247"
					},
					{
						"type": "Farm",
						"url": "https://www.lordswm.com/object-info.php?id=108"
					},
					{
						"type": "Sawmill",
						"url": "https://www.lordswm.com/object-info.php?id=310"
					},
					{
						"type": "Ore pit",
						"url": "https://www.lordswm.com/object-info.php?id=219"
					}
				]
			},
			"machining": {
				"site": {
					"type": "Magic factory",
					"url": "https://www.lordswm.com/object-info.php?id=117"
				}
			},
			"production": {
				"site": [
					{
						"type": "Galoshes workshop",
						"url": "https://www.lordswm.com/object-info.php?id=109"
					},
					{
						"type": "Boots of dawn",
						"url": "https://www.lordswm.com/object-info.php?id=110"
					},
					{
						"type": "Jewellery of torment",
						"url": "https://www.lordswm.com/object-info.php?id=111"
					},
					{
						"type": "Maskrobe manufactory",
						"url": "https://www.lordswm.com/object-info.php?id=112"
					},
					{
						"type": "Magic cape factory",
						"url": "https://www.lordswm.com/object-info.php?id=113"
					},
					{
						"type": "Wizard helmet works",
						"url": "https://www.lordswm.com/object-info.php?id=114"
					},
					{
						"type": "Dragonwing works",
						"url": "https://www.lordswm.com/object-info.php?id=230"
					},
					{
						"type": "Workshop of courage",
						"url": "https://www.lordswm.com/object-info.php?id=268"
					},
					{
						"type": "Ring of faith",
						"url": "https://www.lordswm.com/object-info.php?id=352"
					}
				]
			}
		},
		"Sunny City": {
			"mining": {
				"site": [
					{
						"type": "Lab",
						"url": "https://www.lordswm.com/object-info.php?id=220"
					},
					{
						"type": "Sulphur dune",
						"url": "https://www.lordswm.com/object-info.php?id=104"
					},
					{
						"type": "Crystal cavern",
						"url": "https://www.lordswm.com/object-info.php?id=269"
					},
					{
						"type": "Ore pit",
						"url": "https://www.lordswm.com/object-info.php?id=290"
					},
					{
						"type": "Sawmill",
						"url": "https://www.lordswm.com/object-info.php?id=311"
					}
				]
			},
			"machining": {
				"site": {
					"type": "Magic factory",
					"url": "https://www.lordswm.com/object-info.php?id=116"
				}
			},
			"production": {
				"site": [
					{
						"type": "Boots of dawn",
						"url": "https://www.lordswm.com/object-info.php?id=103"
					},
					{
						"type": "Boots of dawn",
						"url": "https://www.lordswm.com/object-info.php?id=115"
					},
					{
						"type": "Guardian ring",
						"url": "https://www.lordswm.com/object-info.php?id=106"
					},
					{
						"type": "Blacksmith of harmony",
						"url": "https://www.lordswm.com/object-info.php?id=213"
					},
					{
						"type": "Mithril mail factory",
						"url": "https://www.lordswm.com/object-info.php?id=332"
					},
					{
						"type": "Flame helmet plant",
						"url": "https://www.lordswm.com/object-info.php?id=107"
					},
					{
						"type": "Manufactory of might",
						"url": "https://www.lordswm.com/object-info.php?id=353"
					},
					{
						"type": "Ring of fiery gaze",
						"url": "https://www.lordswm.com/object-info.php?id=248"
					},
					{
						"type": "Obsidian sword blacksmith",
						"url": "https://www.lordswm.com/object-info.php?id=105"
					},
					{
						"type": "Soldier boots works",
						"url": "https://www.lordswm.com/object-info.php?id=231"
					}
				]
			}
		},
		"Sublime Arbor": {
			"mining": "",
			"machining": "",
			"production": {
				"site": [
					{
						"type": "Flame foundry",
						"url": "https://www.lordswm.com/object-info.php?id=416"
					},
					{
						"type": "Workshop of fortune",
						"url": "https://www.lordswm.com/object-info.php?id=421"
					},
					{
						"type": "Obsidian shield factory",
						"url": "https://www.lordswm.com/object-info.php?id=426"
					},
					{
						"type": "Maskrobe manufactory",
						"url": "https://www.lordswm.com/object-info.php?id=411"
					},
					{
						"type": "Workshop of courage",
						"url": "https://www.lordswm.com/object-info.php?id=422"
					},
					{
						"type": "Mithril armor factory",
						"url": "https://www.lordswm.com/object-info.php?id=419"
					},
					{
						"type": "Galoshes workshop",
						"url": "https://www.lordswm.com/object-info.php?id=414"
					},
					{
						"type": "Jewellery of ambition",
						"url": "https://www.lordswm.com/object-info.php?id=412"
					},
					{
						"type": "Horseshoe forge",
						"url": "https://www.lordswm.com/object-info.php?id=415"
					},
					{
						"type": "Mithril mail factory",
						"url": "https://www.lordswm.com/object-info.php?id=420"
					},
					{
						"type": "Forge of glory",
						"url": "https://www.lordswm.com/object-info.php?id=413"
					},
					{
						"type": "Manufactory of thorns",
						"url": "https://www.lordswm.com/object-info.php?id=417"
					},
					{
						"type": "Soldier boots works",
						"url": "https://www.lordswm.com/object-info.php?id=423"
					},
					{
						"type": "Ruby boots factory",
						"url": "https://www.lordswm.com/object-info.php?id=424"
					},
					{
						"type": "Ruby helmet factory",
						"url": "https://www.lordswm.com/object-info.php?id=425"
					},
					{
						"type": "Hawk lord workshop",
						"url": "https://www.lordswm.com/object-info.php?id=418"
					}
				]
			}
		},
		"Green Wood": {
			"mining": {
				"site": [
					{
						"type": "Gem mine",
						"url": "https://www.lordswm.com/object-info.php?id=285"
					},
					{
						"type": "Ore pit",
						"url": "https://www.lordswm.com/object-info.php?id=243"
					}
				]
			},
			"machining": {
				"site": {
					"type": "Steel works",
					"url": "https://www.lordswm.com/object-info.php?id=68"
				}
			},
			"production": {
				"site": [
					{
						"type": "Manufactory of thorns",
						"url": "https://www.lordswm.com/object-info.php?id=67"
					},
					{
						"type": "Ring of dexterity",
						"url": "https://www.lordswm.com/object-info.php?id=69"
					},
					{
						"type": "Cloak plant",
						"url": "https://www.lordswm.com/object-info.php?id=88"
					},
					{
						"type": "Ring of hope",
						"url": "https://www.lordswm.com/object-info.php?id=70"
					},
					{
						"type": "Amulet of luck factory",
						"url": "https://www.lordswm.com/object-info.php?id=71"
					},
					{
						"type": "Leather armour plant",
						"url": "https://www.lordswm.com/object-info.php?id=72"
					},
					{
						"type": "Guardian ring",
						"url": "https://www.lordswm.com/object-info.php?id=76"
					},
					{
						"type": "Blacksmith of equilibrium",
						"url": "https://www.lordswm.com/object-info.php?id=77"
					},
					{
						"type": "Amulet of luck factory",
						"url": "https://www.lordswm.com/object-info.php?id=81"
					},
					{
						"type": "Forge of glory",
						"url": "https://www.lordswm.com/object-info.php?id=264"
					},
					{
						"type": "Manufactory of thorns",
						"url": "https://www.lordswm.com/object-info.php?id=306"
					},
					{
						"type": "Manufactory of thorns",
						"url": "https://www.lordswm.com/object-info.php?id=327"
					},
					{
						"type": "Hawk lord workshop",
						"url": "https://www.lordswm.com/object-info.php?id=348"
					}
				]
			}
		},
		"Empire Capital": {
			"mining": {
				"site": [
					{
						"type": "Crystal cavern",
						"url": "https://www.lordswm.com/object-info.php?id=7"
					},
					{
						"type": "Sulphur dune",
						"url": "https://www.lordswm.com/object-info.php?id=5"
					},
					{
						"type": "Ore pit",
						"url": "https://www.lordswm.com/object-info.php?id=3"
					},
					{
						"type": "Lab",
						"url": "https://www.lordswm.com/object-info.php?id=9"
					},
					{
						"type": "Gem mine",
						"url": "https://www.lordswm.com/object-info.php?id=6"
					},
					{
						"type": "Farm",
						"url": "https://www.lordswm.com/object-info.php?id=8"
					},
					{
						"type": "Sawmill",
						"url": "https://www.lordswm.com/object-info.php?id=4"
					},
					{
						"type": "Diamond repository",
						"url": "https://www.lordswm.com/object-info.php?id=165"
					}
				]
			},
			"machining": {
				"site": [
					{
						"type": "Nickel works",
						"url": "https://www.lordswm.com/object-info.php?id=10"
					},
					{
						"type": "Steel works",
						"url": "https://www.lordswm.com/object-info.php?id=12"
					},
					{
						"type": "Magic factory",
						"url": "https://www.lordswm.com/object-info.php?id=11"
					}
				]
			},
			"production": {
				"site": [
					{
						"type": "Cloak plant",
						"url": "https://www.lordswm.com/object-info.php?id=38"
					},
					{
						"type": "Shoe works",
						"url": "https://www.lordswm.com/object-info.php?id=34"
					},
					{
						"type": "Leather helmet plant",
						"url": "https://www.lordswm.com/object-info.php?id=32"
					}
				]
			}
		},
		"East River": {
			"mining": {
				"site": [
					{
						"type": "Farm",
						"url": "https://www.lordswm.com/object-info.php?id=25"
					},
					{
						"type": "Ore pit",
						"url": "https://www.lordswm.com/object-info.php?id=279"
					},
					{
						"type": "Sawmill",
						"url": "https://www.lordswm.com/object-info.php?id=26"
					},
					{
						"type": "Ore pit",
						"url": "https://www.lordswm.com/object-info.php?id=321"
					},
					{
						"type": "Ore pit",
						"url": "https://www.lordswm.com/object-info.php?id=238"
					},
					{
						"type": "Sawmill",
						"url": "https://www.lordswm.com/object-info.php?id=300"
					},
					{
						"type": "Ore pit",
						"url": "https://www.lordswm.com/object-info.php?id=75"
					},
					{
						"type": "Lab",
						"url": "https://www.lordswm.com/object-info.php?id=258"
					}
				]
			},
			"machining": {
				"site": {
					"type": "Steel works",
					"url": "https://www.lordswm.com/object-info.php?id=23"
				}
			},
			"production": {
				"site": [
					{
						"type": "Amulet of luck factory",
						"url": "https://www.lordswm.com/object-info.php?id=24"
					},
					{
						"type": "Blacksmith of courage",
						"url": "https://www.lordswm.com/object-info.php?id=342"
					},
					{
						"type": "Jackboots manufactory",
						"url": "https://www.lordswm.com/object-info.php?id=36"
					},
					{
						"type": "Jewellery of doubts",
						"url": "https://www.lordswm.com/object-info.php?id=87"
					},
					{
						"type": "Blacksmith of retribution",
						"url": "https://www.lordswm.com/object-info.php?id=89"
					},
					{
						"type": "Workshop of bravery",
						"url": "https://www.lordswm.com/object-info.php?id=28"
					},
					{
						"type": "Signet-ring jewellery",
						"url": "https://www.lordswm.com/object-info.php?id=33"
					}
				]
			}
		},
		"Dragons' Caves": {
			"mining": {
				"site": [
					{
						"type": "Obsidian occurrence",
						"url": "https://www.lordswm.com/object-info.php?id=168"
					},
					{
						"type": "Obsidian occurrence",
						"url": "https://www.lordswm.com/object-info.php?id=169"
					},
					{
						"type": "Obsidian occurrence",
						"url": "https://www.lordswm.com/object-info.php?id=167"
					}
				]
			},
			"machining": "",
			"production": {
				"site": [
					{
						"type": "Flame plate plant",
						"url": "https://www.lordswm.com/object-info.php?id=309"
					},
					{
						"type": "Obsidian sword blacksmith",
						"url": "https://www.lordswm.com/object-info.php?id=229"
					},
					{
						"type": "Maskrobe manufactory",
						"url": "https://www.lordswm.com/object-info.php?id=288"
					},
					{
						"type": "Galoshes workshop",
						"url": "https://www.lordswm.com/object-info.php?id=172"
					},
					{
						"type": "Manufactory of wrath",
						"url": "https://www.lordswm.com/object-info.php?id=267"
					},
					{
						"type": "Manufactory of wrath",
						"url": "https://www.lordswm.com/object-info.php?id=209"
					},
					{
						"type": "Workshop of fortune",
						"url": "https://www.lordswm.com/object-info.php?id=246"
					},
					{
						"type": "Mithril mail factory",
						"url": "https://www.lordswm.com/object-info.php?id=170"
					},
					{
						"type": "Mithril ring",
						"url": "https://www.lordswm.com/object-info.php?id=210"
					},
					{
						"type": "Manufactory of thorns",
						"url": "https://www.lordswm.com/object-info.php?id=218"
					},
					{
						"type": "Ring of fiery gaze",
						"url": "https://www.lordswm.com/object-info.php?id=330"
					},
					{
						"type": "Manufactory of thorns",
						"url": "https://www.lordswm.com/object-info.php?id=351"
					},
					{
						"type": "Workshop of courage",
						"url": "https://www.lordswm.com/object-info.php?id=171"
					}
				]
			}
		},
		"Wolf Dale": {
			"mining": {
				"site": [
					{
						"type": "Lab",
						"url": "https://www.lordswm.com/object-info.php?id=43"
					},
					{
						"type": "Sawmill",
						"url": "https://www.lordswm.com/object-info.php?id=74"
					},
					{
						"type": "Crystal cavern",
						"url": "https://www.lordswm.com/object-info.php?id=44"
					},
					{
						"type": "Farm",
						"url": "https://www.lordswm.com/object-info.php?id=345"
					},
					{
						"type": "Ore pit",
						"url": "https://www.lordswm.com/object-info.php?id=282"
					},
					{
						"type": "Lab",
						"url": "https://www.lordswm.com/object-info.php?id=226"
					},
					{
						"type": "Lab",
						"url": "https://www.lordswm.com/object-info.php?id=303"
					},
					{
						"type": "Sawmill",
						"url": "https://www.lordswm.com/object-info.php?id=241"
					}
				]
			},
			"machining": {
				"site": {
					"type": "Magic factory",
					"url": "https://www.lordswm.com/object-info.php?id=85"
				}
			},
			"production": {
				"site": [
					{
						"type": "Ring of fiery gaze",
						"url": "https://www.lordswm.com/object-info.php?id=324"
					},
					{
						"type": "Ring of hope",
						"url": "https://www.lordswm.com/object-info.php?id=47"
					},
					{
						"type": "Ring of hope",
						"url": "https://www.lordswm.com/object-info.php?id=45"
					},
					{
						"type": "Flame boots plant",
						"url": "https://www.lordswm.com/object-info.php?id=48"
					},
					{
						"type": "Hauberk works",
						"url": "https://www.lordswm.com/object-info.php?id=86"
					},
					{
						"type": "Hawk lord workshop",
						"url": "https://www.lordswm.com/object-info.php?id=261"
					},
					{
						"type": "Hat factory",
						"url": "https://www.lordswm.com/object-info.php?id=46"
					}
				]
			}
		},
		"Lizard Lowland": {
			"mining": {
				"site": [
					{
						"type": "Sulphur dune",
						"url": "https://www.lordswm.com/object-info.php?id=59"
					},
					{
						"type": "Gem mine",
						"url": "https://www.lordswm.com/object-info.php?id=326"
					},
					{
						"type": "Ore pit",
						"url": "https://www.lordswm.com/object-info.php?id=56"
					},
					{
						"type": "Sawmill",
						"url": "https://www.lordswm.com/object-info.php?id=305"
					}
				]
			},
			"machining": {
				"site": {
					"type": "Magic factory",
					"url": "https://www.lordswm.com/object-info.php?id=64"
				}
			},
			"production": {
				"site": [
					{
						"type": "Dragongrip jewellery",
						"url": "https://www.lordswm.com/object-info.php?id=347"
					},
					{
						"type": "Ring of faith",
						"url": "https://www.lordswm.com/object-info.php?id=63"
					},
					{
						"type": "Signet-ring jewellery",
						"url": "https://www.lordswm.com/object-info.php?id=80"
					},
					{
						"type": "Blacksmith of reprisal",
						"url": "https://www.lordswm.com/object-info.php?id=58"
					},
					{
						"type": "Blacksmith of harmony",
						"url": "https://www.lordswm.com/object-info.php?id=57"
					},
					{
						"type": "Dragonlords Legacy jewellery",
						"url": "https://www.lordswm.com/object-info.php?id=60"
					},
					{
						"type": "Leather helmet plant",
						"url": "https://www.lordswm.com/object-info.php?id=83"
					},
					{
						"type": "Blacksmith of stiffness",
						"url": "https://www.lordswm.com/object-info.php?id=242"
					},
					{
						"type": "Jewellery of ambition",
						"url": "https://www.lordswm.com/object-info.php?id=263"
					},
					{
						"type": "Obsidian armour plant",
						"url": "https://www.lordswm.com/object-info.php?id=284"
					},
					{
						"type": "Jewellery of abdication",
						"url": "https://www.lordswm.com/object-info.php?id=61"
					}
				]
			}
		},
		"The Wilderness": {
			"mining": "",
			"machining": "",
			"production": {
				"site": [
					{
						"type": "Helmet of dawn",
						"url": "https://www.lordswm.com/object-info.php?id=402"
					},
					{
						"type": "Workshop of fortune",
						"url": "https://www.lordswm.com/object-info.php?id=403"
					},
					{
						"type": "Breastplate of grace manufactory",
						"url": "https://www.lordswm.com/object-info.php?id=409"
					},
					{
						"type": "Blacksmith of harmony",
						"url": "https://www.lordswm.com/object-info.php?id=404"
					},
					{
						"type": "Helmet of grace manufactory",
						"url": "https://www.lordswm.com/object-info.php?id=406"
					},
					{
						"type": "Obsidian armour plant",
						"url": "https://www.lordswm.com/object-info.php?id=399"
					},
					{
						"type": "Boots of grace manufactory",
						"url": "https://www.lordswm.com/object-info.php?id=407"
					},
					{
						"type": "Manufactory of oblivion",
						"url": "https://www.lordswm.com/object-info.php?id=405"
					},
					{
						"type": "Obsidian sword blacksmith",
						"url": "https://www.lordswm.com/object-info.php?id=398"
					},
					{
						"type": "Blacksmith of courage",
						"url": "https://www.lordswm.com/object-info.php?id=410"
					},
					{
						"type": "Ruby boots factory",
						"url": "https://www.lordswm.com/object-info.php?id=397"
					},
					{
						"type": "Hawk lord workshop",
						"url": "https://www.lordswm.com/object-info.php?id=395"
					},
					{
						"type": "Ruby helmet factory",
						"url": "https://www.lordswm.com/object-info.php?id=396"
					},
					{
						"type": "Obsidian baton foundry",
						"url": "https://www.lordswm.com/object-info.php?id=400"
					},
					{
						"type": "Dragonscale works",
						"url": "https://www.lordswm.com/object-info.php?id=401"
					},
					{
						"type": "Dragonwing works",
						"url": "https://www.lordswm.com/object-info.php?id=408"
					}
				]
			}
		},
		"Portal Ruins": {
			"mining": {
				"site": [
					{
						"type": "Ore pit",
						"url": "https://www.lordswm.com/object-info.php?id=266"
					},
					{
						"type": "Gem mine",
						"url": "https://www.lordswm.com/object-info.php?id=93"
					},
					{
						"type": "Crystal cavern",
						"url": "https://www.lordswm.com/object-info.php?id=245"
					},
					{
						"type": "Crystal cavern",
						"url": "https://www.lordswm.com/object-info.php?id=92"
					},
					{
						"type": "Sawmill",
						"url": "https://www.lordswm.com/object-info.php?id=228"
					}
				]
			},
			"machining": {
				"site": [
					{
						"type": "Steel works",
						"url": "https://www.lordswm.com/object-info.php?id=350"
					},
					{
						"type": "Foundry",
						"url": "https://www.lordswm.com/object-info.php?id=329"
					},
					{
						"type": "Magic factory",
						"url": "https://www.lordswm.com/object-info.php?id=163"
					}
				]
			},
			"production": {
				"site": [
					{
						"type": "Cuirass of dawn",
						"url": "https://www.lordswm.com/object-info.php?id=211"
					},
					{
						"type": "Dragonscale works",
						"url": "https://www.lordswm.com/object-info.php?id=287"
					},
					{
						"type": "Ring of dexterity",
						"url": "https://www.lordswm.com/object-info.php?id=217"
					},
					{
						"type": "Blacksmith of might",
						"url": "https://www.lordswm.com/object-info.php?id=118"
					},
					{
						"type": "Dragonlords Legacy blacksmith",
						"url": "https://www.lordswm.com/object-info.php?id=99"
					},
					{
						"type": "Workshop of fortune",
						"url": "https://www.lordswm.com/object-info.php?id=100"
					},
					{
						"type": "Steel helmet plant",
						"url": "https://www.lordswm.com/object-info.php?id=102"
					},
					{
						"type": "Leather harness plant",
						"url": "https://www.lordswm.com/object-info.php?id=308"
					}
				]
			}
		},
		"Great Wall": {
			"mining": {
				"site": [
					{
						"type": "Ore pit",
						"url": "https://www.lordswm.com/object-info.php?id=359"
					},
					{
						"type": "Sawmill",
						"url": "https://www.lordswm.com/object-info.php?id=179"
					},
					{
						"type": "Sawmill",
						"url": "https://www.lordswm.com/object-info.php?id=178"
					}
				]
			},
			"machining": "",
			"production": {
				"site": [
					{
						"type": "Jewellery of wardance",
						"url": "https://www.lordswm.com/object-info.php?id=194"
					},
					{
						"type": "Flame boots plant",
						"url": "https://www.lordswm.com/object-info.php?id=193"
					},
					{
						"type": "Obsidian boots plant",
						"url": "https://www.lordswm.com/object-info.php?id=192"
					},
					{
						"type": "Gladius of presage",
						"url": "https://www.lordswm.com/object-info.php?id=195"
					},
					{
						"type": "Boots of dawn",
						"url": "https://www.lordswm.com/object-info.php?id=338"
					},
					{
						"type": "Ring of hope",
						"url": "https://www.lordswm.com/object-info.php?id=203"
					},
					{
						"type": "Dragongrip jewellery",
						"url": "https://www.lordswm.com/object-info.php?id=275"
					},
					{
						"type": "Manufactory of thorns",
						"url": "https://www.lordswm.com/object-info.php?id=317"
					},
					{
						"type": "Scout`s cape",
						"url": "https://www.lordswm.com/object-info.php?id=173"
					},
					{
						"type": "Jewellery of torment",
						"url": "https://www.lordswm.com/object-info.php?id=202"
					},
					{
						"type": "Obsidian helmet plant",
						"url": "https://www.lordswm.com/object-info.php?id=201"
					},
					{
						"type": "Jewellery of ambition",
						"url": "https://www.lordswm.com/object-info.php?id=296"
					},
					{
						"type": "Steel buckler",
						"url": "https://www.lordswm.com/object-info.php?id=254"
					}
				]
			}
		},
		"Titans' Valley": {
			"mining": {
				"site": [
					{
						"type": "Ore pit",
						"url": "https://www.lordswm.com/object-info.php?id=177"
					},
					{
						"type": "Sawmill",
						"url": "https://www.lordswm.com/object-info.php?id=176"
					}
				]
			},
			"machining": {
				"site": {
					"type": "Smeltery",
					"url": "https://www.lordswm.com/object-info.php?id=191"
				}
			},
			"production": {
				"site": [
					{
						"type": "Ring of fiery gaze",
						"url": "https://www.lordswm.com/object-info.php?id=190"
					},
					{
						"type": "Blacksmith of rebirth",
						"url": "https://www.lordswm.com/object-info.php?id=188"
					},
					{
						"type": "Cuirass of dawn",
						"url": "https://www.lordswm.com/object-info.php?id=318"
					},
					{
						"type": "Boots of dawn",
						"url": "https://www.lordswm.com/object-info.php?id=206"
					},
					{
						"type": "Helmet of dawn",
						"url": "https://www.lordswm.com/object-info.php?id=208"
					},
					{
						"type": "Obsidian sword blacksmith",
						"url": "https://www.lordswm.com/object-info.php?id=297"
					},
					{
						"type": "Forge of glory",
						"url": "https://www.lordswm.com/object-info.php?id=276"
					},
					{
						"type": "Horseshoe forge",
						"url": "https://www.lordswm.com/object-info.php?id=339"
					},
					{
						"type": "Horseshoe forge",
						"url": "https://www.lordswm.com/object-info.php?id=255"
					},
					{
						"type": "Nightwatch works",
						"url": "https://www.lordswm.com/object-info.php?id=189"
					},
					{
						"type": "Ruby gladius blacksmith",
						"url": "https://www.lordswm.com/object-info.php?id=187"
					},
					{
						"type": "Ring of fiery gaze",
						"url": "https://www.lordswm.com/object-info.php?id=207"
					},
					{
						"type": "Ring of fiery gaze",
						"url": "https://www.lordswm.com/object-info.php?id=360"
					}
				]
			}
		},
		"Fishing Village": {
			"mining": {
				"site": [
					{
						"type": "Ore pit",
						"url": "https://www.lordswm.com/object-info.php?id=319"
					},
					{
						"type": "Crystal cavern",
						"url": "https://www.lordswm.com/object-info.php?id=340"
					},
					{
						"type": "Ore pit",
						"url": "https://www.lordswm.com/object-info.php?id=223"
					},
					{
						"type": "Ore pit",
						"url": "https://www.lordswm.com/object-info.php?id=236"
					},
					{
						"type": "Ore pit",
						"url": "https://www.lordswm.com/object-info.php?id=256"
					},
					{
						"type": "Sawmill",
						"url": "https://www.lordswm.com/object-info.php?id=166"
					}
				]
			},
			"machining": {
				"site": {
					"type": "Smeltery",
					"url": "https://www.lordswm.com/object-info.php?id=174"
				}
			},
			"production": {
				"site": [
					{
						"type": "Dragonlords Legacy jewellery",
						"url": "https://www.lordswm.com/object-info.php?id=197"
					},
					{
						"type": "Flame plate plant",
						"url": "https://www.lordswm.com/object-info.php?id=198"
					},
					{
						"type": "Obsidian shield factory",
						"url": "https://www.lordswm.com/object-info.php?id=199"
					},
					{
						"type": "Flame plate plant",
						"url": "https://www.lordswm.com/object-info.php?id=200"
					},
					{
						"type": "Blacksmith of courage",
						"url": "https://www.lordswm.com/object-info.php?id=361"
					},
					{
						"type": "Jewellery of ambition",
						"url": "https://www.lordswm.com/object-info.php?id=175"
					},
					{
						"type": "Gladius of presage",
						"url": "https://www.lordswm.com/object-info.php?id=196"
					},
					{
						"type": "Manufactory of thorns",
						"url": "https://www.lordswm.com/object-info.php?id=277"
					},
					{
						"type": "Obsidian sword blacksmith",
						"url": "https://www.lordswm.com/object-info.php?id=298"
					}
				]
			}
		},
		"Kingdom Castle": {
			"mining": {
				"site": [
					{
						"type": "Sawmill",
						"url": "https://www.lordswm.com/object-info.php?id=362"
					},
					{
						"type": "Gem mine",
						"url": "https://www.lordswm.com/object-info.php?id=186"
					},
					{
						"type": "Lab",
						"url": "https://www.lordswm.com/object-info.php?id=184"
					},
					{
						"type": "Ore pit",
						"url": "https://www.lordswm.com/object-info.php?id=237"
					}
				]
			},
			"machining": {
				"site": [
					{
						"type": "Foundry",
						"url": "https://www.lordswm.com/object-info.php?id=320"
					},
					{
						"type": "Smeltery",
						"url": "https://www.lordswm.com/object-info.php?id=185"
					}
				]
			},
			"production": {
				"site": [
					{
						"type": "Ring of fiery gaze",
						"url": "https://www.lordswm.com/object-info.php?id=183"
					},
					{
						"type": "Flame foundry",
						"url": "https://www.lordswm.com/object-info.php?id=181"
					},
					{
						"type": "Mithril armor factory",
						"url": "https://www.lordswm.com/object-info.php?id=204"
					},
					{
						"type": "Gladius of presage",
						"url": "https://www.lordswm.com/object-info.php?id=205"
					},
					{
						"type": "Twilight piercer",
						"url": "https://www.lordswm.com/object-info.php?id=257"
					},
					{
						"type": "Dragonscale works",
						"url": "https://www.lordswm.com/object-info.php?id=278"
					},
					{
						"type": "Ring of faith",
						"url": "https://www.lordswm.com/object-info.php?id=182"
					},
					{
						"type": "Maskrobe manufactory",
						"url": "https://www.lordswm.com/object-info.php?id=299"
					},
					{
						"type": "Flame helmet plant",
						"url": "https://www.lordswm.com/object-info.php?id=180"
					},
					{
						"type": "Flame foundry",
						"url": "https://www.lordswm.com/object-info.php?id=341"
					}
				]
			}
		},
	}
}